…
age
---

``` r
freq=bank %>% group_by(age) %>% summarise(age_count=n())

freq
```

    ## # A tibble: 77 x 2
    ##      age age_count
    ##    <int>     <int>
    ##  1    18        12
    ##  2    19        35
    ##  3    20        50
    ##  4    21        79
    ##  5    22       129
    ##  6    23       202
    ##  7    24       302
    ##  8    25       527
    ##  9    26       805
    ## 10    27       909
    ## # ... with 67 more rows
…
